{
  "definitions": {
    "Amendment": {
      "properties": {
        "amendsPeriod": {
          "title": "Amends Period",
          "description": "If the amendment is made to modify the contract duration, then they new duration should be registered in this field",
          "$ref": "#/definitions/Period"
        },
        "amendsAmount": {
          "title": "Amends Amount",
          "description": "If the amendment is made to up the contract amount, that additional amount should be registered is this field",
          "$ref": "#/definitions/Value"
        },
        "financialCode": {
          "title": "Financial Code",
          "description": "The financial code that approves this amendment if applies.",
          "type": [
            "string",
            "null"
          ]
        }
      }
    }
  }
}
